amaranth/Modules/ALU/alu.vcd
$comment Generated by Amaranth $end
$date 2025-05-05 00:18:16.363139 $end
$timescale 1 fs $end
$scope module bench $end
$scope module top $end
$var wire 32 ! Q $end
$var wire 1 " isALUreg $end
$var wire 1 # isALUimm $end
$var wire 1 $ isAUIPC $end
$var wire 1 % isLUI $end
$var wire 1 & isJAL $end
$var wire 1 ' isJALR $end
$var wire 1 ( isLoad $end
$var wire 1 ) isStore $end
$var wire 3 * func3 $end
$var wire 7 + func7 $end
$var wire 32 , A $end
$var wire 32 - B $end
$var wire 5 . shamt $end
$upscope $end
$upscope $end
$enddefinitions $end
#0
$dumpvars
b1111 !
1"
0#
0$
0%
0&
0'
0(
0)
b0 *
b0 +
b1010 ,
b101 -
b0 .
$end
#500000000
b100000 +
b101 !
#1500000000
b11111111111111111111111111111011 ,
b11111111111111111111111111110110 !
b11 -
b11111111111111111111111111111000 !
b10 *
b1 !
b0 +
#2500000000
b11111111111111111111111111111111 ,
b1 -
b11 *
b0 !
#3500000000
b1100 ,
b1010 -
b111 *
b1000 !
#4500000000
b110 *
b1110 !
#5500000000
b1000 ,
b1010 !
b10 .
b101 *
b10 !
#6500000000
b11111111111111111111111111111000 ,
b111111111111111111111111111110 !
b100000 +
b11111111111111111111111111111110 !
