amaranth/Modules/Register_Bank/regbank_test.vcd
$comment Generated by Amaranth $end
$date 2025-05-04 20:47:45.626256 $end
$timescale 1 fs $end
$scope module bench $end
$scope module top $end
$var wire 1 ! clk $end
$var wire 1 " rst $end
$var wire 32 # rs1_data $end
$var wire 5 $ rs1_addr $end
$var wire 32 % $signal $end
$var wire 32 & $signal$5 $end
$var wire 32 ' $signal$6 $end
$var wire 32 ( $signal$7 $end
$var wire 32 ) $signal$8 $end
$var wire 32 * $signal$9 $end
$var wire 32 + $signal$10 $end
$var wire 32 , $signal$11 $end
$var wire 32 - $signal$12 $end
$var wire 32 . $signal$13 $end
$var wire 32 / $signal$14 $end
$var wire 32 0 $signal$15 $end
$var wire 32 1 $signal$16 $end
$var wire 32 2 $signal$17 $end
$var wire 32 3 $signal$18 $end
$var wire 32 4 $signal$19 $end
$var wire 32 5 $signal$20 $end
$var wire 32 6 $signal$21 $end
$var wire 32 7 $signal$22 $end
$var wire 32 8 $signal$23 $end
$var wire 32 9 $signal$24 $end
$var wire 32 : $signal$25 $end
$var wire 32 ; $signal$26 $end
$var wire 32 < $signal$27 $end
$var wire 32 = $signal$28 $end
$var wire 32 > $signal$29 $end
$var wire 32 ? $signal$30 $end
$var wire 32 @ $signal$31 $end
$var wire 32 A $signal$32 $end
$var wire 32 B $signal$33 $end
$var wire 32 C $signal$34 $end
$var wire 32 D $signal$35 $end
$var wire 32 E rs2_data $end
$var wire 5 F rs2_addr $end
$var wire 1 G we $end
$var wire 5 H rd_addr $end
$var wire 32 I rd_data $end
$upscope $end
$upscope $end
$enddefinitions $end
#0
$dumpvars
0!
0"
b0 #
b0 $
b0 %
b0 &
b0 '
b0 (
b0 )
b0 *
b0 +
b0 ,
b0 -
b0 .
b0 /
b0 0
b0 1
b0 2
b0 3
b0 4
b0 5
b0 6
b0 7
b0 8
b0 9
b0 :
b0 ;
b0 <
b0 =
b0 >
b0 ?
b0 @
b0 A
b0 B
b0 C
b0 D
b0 E
b0 F
1G
b0 H
b10000000000000000000000 I
$end
#500000000
1!
b100000000000000000000000 I
#1000000000
0!
#1500000000
1!
b1000000000000000000000000 I
#2000000000
0!
#2500000000
1!
b10000000000000000000000000 I
#3000000000
0!
#3500000000
1!
b100000000000000000000000000 I
#4000000000
0!
#4500000000
1!
b1000000000000000000000000000 I
#5000000000
0!
#5500000000
1!
b10000000000000000000000000000 I
#6000000000
0!
#6500000000
1!
b100000000000000000000000000000 I
#7000000000
0!
#7500000000
1!
b1000000000000000000000000000000 I
#8000000000
0!
#8500000000
1!
b10000000000000000000000000000000 I
#9000000000
0!
#9500000000
1!
b1 $
b1 H
b10000000000000000000000 I
#10000000000
0!
#10500000000
1!
b10000000000000000000000 &
b10000000000000000000000 #
b100000000000000000000000 I
#11000000000
0!
#11500000000
1!
b100000000000000000000000 &
b100000000000000000000000 #
b1000000000000000000000000 I
#12000000000
0!
#12500000000
1!
b1000000000000000000000000 &
b1000000000000000000000000 #
b10000000000000000000000000 I
#13000000000
0!
#13500000000
1!
b10000000000000000000000000 &
b10000000000000000000000000 #
b100000000000000000000000000 I
#14000000000
0!
#14500000000
1!
b100000000000000000000000000 &
b100000000000000000000000000 #
b1000000000000000000000000000 I
#15000000000
0!
#15500000000
1!
b1000000000000000000000000000 &
b1000000000000000000000000000 #
b10000000000000000000000000000 I
#16000000000
0!
#16500000000
1!
b10000000000000000000000000000 &
b10000000000000000000000000000 #
b100000000000000000000000000000 I
#17000000000
0!
#17500000000
1!
b100000000000000000000000000000 &
b100000000000000000000000000000 #
b1000000000000000000000000000000 I
#18000000000
0!
#18500000000
1!
b1000000000000000000000000000000 &
b1000000000000000000000000000000 #
b10000000000000000000000000000000 I
#19000000000
0!
#19500000000
1!
b10000000000000000000000000000000 &
b10000000000000000000000000000000 #
b10 $
b0 #
b10 H
b10000000000000000000000 I
#20000000000
0!
#20500000000
1!
b10000000000000000000000 '
b10000000000000000000000 #
b100000000000000000000000 I
#21000000000
0!
#21500000000
1!
b100000000000000000000000 '
b100000000000000000000000 #
b1000000000000000000000000 I
#22000000000
0!
#22500000000
1!
b1000000000000000000000000 '
b1000000000000000000000000 #
b10000000000000000000000000 I
#23000000000
0!
#23500000000
1!
b10000000000000000000000000 '
b10000000000000000000000000 #
b100000000000000000000000000 I
#24000000000
0!
#24500000000
1!
b100000000000000000000000000 '
b100000000000000000000000000 #
b1000000000000000000000000000 I
#25000000000
0!
#25500000000
1!
b1000000000000000000000000000 '
b1000000000000000000000000000 #
b10000000000000000000000000000 I
#26000000000
0!
#26500000000
1!
b10000000000000000000000000000 '
b10000000000000000000000000000 #
b100000000000000000000000000000 I
#27000000000
0!
#27500000000
1!
b100000000000000000000000000000 '
b100000000000000000000000000000 #
b1000000000000000000000000000000 I
#28000000000
0!
#28500000000
1!
b1000000000000000000000000000000 '
b1000000000000000000000000000000 #
b10000000000000000000000000000000 I
#29000000000
0!
#29500000000
1!
b10000000000000000000000000000000 '
b10000000000000000000000000000000 #
b11 $
b0 #
b11 H
b10000000000000000000000 I
#30000000000
0!
#30500000000
1!
b10000000000000000000000 (
b10000000000000000000000 #
b100000000000000000000000 I
#31000000000
0!
#31500000000
1!
b100000000000000000000000 (
b100000000000000000000000 #
b1000000000000000000000000 I
#32000000000
0!
#32500000000
1!
b1000000000000000000000000 (
b1000000000000000000000000 #
b10000000000000000000000000 I
#33000000000
0!
#33500000000
1!
b10000000000000000000000000 (
b10000000000000000000000000 #
b100000000000000000000000000 I
#34000000000
0!
#34500000000
1!
b100000000000000000000000000 (
b100000000000000000000000000 #
b1000000000000000000000000000 I
#35000000000
0!
#35500000000
1!
b1000000000000000000000000000 (
b1000000000000000000000000000 #
b10000000000000000000000000000 I
#36000000000
0!
#36500000000
1!
b10000000000000000000000000000 (
b10000000000000000000000000000 #
b100000000000000000000000000000 I
#37000000000
0!
#37500000000
1!
b100000000000000000000000000000 (
b100000000000000000000000000000 #
b1000000000000000000000000000000 I
#38000000000
0!
#38500000000
1!
b1000000000000000000000000000000 (
b1000000000000000000000000000000 #
b10000000000000000000000000000000 I
#39000000000
0!
#39500000000
1!
b10000000000000000000000000000000 (
b10000000000000000000000000000000 #
b100 $
b0 #
b100 H
b10000000000000000000000 I
#40000000000
0!
#40500000000
1!
b10000000000000000000000 )
b10000000000000000000000 #
b100000000000000000000000 I
#41000000000
0!
#41500000000
1!
b100000000000000000000000 )
b100000000000000000000000 #
b1000000000000000000000000 I
#42000000000
0!
#42500000000
1!
b1000000000000000000000000 )
b1000000000000000000000000 #
b10000000000000000000000000 I
#43000000000
0!
#43500000000
1!
b10000000000000000000000000 )
b10000000000000000000000000 #
b100000000000000000000000000 I
#44000000000
0!
#44500000000
1!
b100000000000000000000000000 )
b100000000000000000000000000 #
b1000000000000000000000000000 I
#45000000000
0!
#45500000000
1!
b1000000000000000000000000000 )
b1000000000000000000000000000 #
b10000000000000000000000000000 I
#46000000000
0!
#46500000000
1!
b10000000000000000000000000000 )
b10000000000000000000000000000 #
b100000000000000000000000000000 I
#47000000000
0!
#47500000000
1!
b100000000000000000000000000000 )
b100000000000000000000000000000 #
b1000000000000000000000000000000 I
#48000000000
0!
#48500000000
1!
b1000000000000000000000000000000 )
b1000000000000000000000000000000 #
b10000000000000000000000000000000 I
#49000000000
0!
#49500000000
1!
b10000000000000000000000000000000 )
b10000000000000000000000000000000 #
b101 $
b0 #
b101 H
b10000000000000000000000 I
#50000000000
0!
#50500000000
1!
b10000000000000000000000 *
b10000000000000000000000 #
b100000000000000000000000 I
#51000000000
0!
#51500000000
1!
b100000000000000000000000 *
b100000000000000000000000 #
b1000000000000000000000000 I
#52000000000
0!
#52500000000
1!
b1000000000000000000000000 *
b1000000000000000000000000 #
b10000000000000000000000000 I
#53000000000
0!
#53500000000
1!
b10000000000000000000000000 *
b10000000000000000000000000 #
b100000000000000000000000000 I
#54000000000
0!
#54500000000
1!
b100000000000000000000000000 *
b100000000000000000000000000 #
b1000000000000000000000000000 I
#55000000000
0!
#55500000000
1!
b1000000000000000000000000000 *
b1000000000000000000000000000 #
b10000000000000000000000000000 I
#56000000000
0!
#56500000000
1!
b10000000000000000000000000000 *
b10000000000000000000000000000 #
b100000000000000000000000000000 I
#57000000000
0!
#57500000000
1!
b100000000000000000000000000000 *
b100000000000000000000000000000 #
b1000000000000000000000000000000 I
#58000000000
0!
#58500000000
1!
b1000000000000000000000000000000 *
b1000000000000000000000000000000 #
b10000000000000000000000000000000 I
#59000000000
0!
#59500000000
1!
b10000000000000000000000000000000 *
b10000000000000000000000000000000 #
b110 $
b0 #
b110 H
b10000000000000000000000 I
#60000000000
0!
#60500000000
1!
b10000000000000000000000 +
b10000000000000000000000 #
b100000000000000000000000 I
#61000000000
0!
#61500000000
1!
b100000000000000000000000 +
b100000000000000000000000 #
b1000000000000000000000000 I
#62000000000
0!
#62500000000
1!
b1000000000000000000000000 +
b1000000000000000000000000 #
b10000000000000000000000000 I
#63000000000
0!
#63500000000
1!
b10000000000000000000000000 +
b10000000000000000000000000 #
b100000000000000000000000000 I
#64000000000
0!
#64500000000
1!
b100000000000000000000000000 +
b100000000000000000000000000 #
b1000000000000000000000000000 I
#65000000000
0!
#65500000000
1!
b1000000000000000000000000000 +
b1000000000000000000000000000 #
b10000000000000000000000000000 I
#66000000000
0!
#66500000000
1!
b10000000000000000000000000000 +
b10000000000000000000000000000 #
b100000000000000000000000000000 I
#67000000000
0!
#67500000000
1!
b100000000000000000000000000000 +
b100000000000000000000000000000 #
b1000000000000000000000000000000 I
#68000000000
0!
#68500000000
1!
b1000000000000000000000000000000 +
b1000000000000000000000000000000 #
b10000000000000000000000000000000 I
#69000000000
0!
#69500000000
1!
b10000000000000000000000000000000 +
b10000000000000000000000000000000 #
b111 $
b0 #
b111 H
b10000000000000000000000 I
#70000000000
0!
#70500000000
1!
b10000000000000000000000 ,
b10000000000000000000000 #
b100000000000000000000000 I
#71000000000
0!
#71500000000
1!
b100000000000000000000000 ,
b100000000000000000000000 #
b1000000000000000000000000 I
#72000000000
0!
#72500000000
1!
b1000000000000000000000000 ,
b1000000000000000000000000 #
b10000000000000000000000000 I
#73000000000
0!
#73500000000
1!
b10000000000000000000000000 ,
b10000000000000000000000000 #
b100000000000000000000000000 I
#74000000000
0!
#74500000000
1!
b100000000000000000000000000 ,
b100000000000000000000000000 #
b1000000000000000000000000000 I
#75000000000
0!
#75500000000
1!
b1000000000000000000000000000 ,
b1000000000000000000000000000 #
b10000000000000000000000000000 I
#76000000000
0!
#76500000000
1!
b10000000000000000000000000000 ,
b10000000000000000000000000000 #
b100000000000000000000000000000 I
#77000000000
0!
#77500000000
1!
b100000000000000000000000000000 ,
b100000000000000000000000000000 #
b1000000000000000000000000000000 I
#78000000000
0!
#78500000000
1!
b1000000000000000000000000000000 ,
b1000000000000000000000000000000 #
b10000000000000000000000000000000 I
#79000000000
0!
#79500000000
1!
b10000000000000000000000000000000 ,
b10000000000000000000000000000000 #
b1000 $
b0 #
b1000 H
b10000000000000000000000 I
#80000000000
0!
#80500000000
1!
b10000000000000000000000 -
b10000000000000000000000 #
b100000000000000000000000 I
#81000000000
0!
#81500000000
1!
b100000000000000000000000 -
b100000000000000000000000 #
b1000000000000000000000000 I
#82000000000
0!
#82500000000
1!
b1000000000000000000000000 -
b1000000000000000000000000 #
b10000000000000000000000000 I
#83000000000
0!
#83500000000
1!
b10000000000000000000000000 -
b10000000000000000000000000 #
b100000000000000000000000000 I
#84000000000
0!
#84500000000
1!
b100000000000000000000000000 -
b100000000000000000000000000 #
b1000000000000000000000000000 I
#85000000000
0!
#85500000000
1!
b1000000000000000000000000000 -
b1000000000000000000000000000 #
b10000000000000000000000000000 I
#86000000000
0!
#86500000000
1!
b10000000000000000000000000000 -
b10000000000000000000000000000 #
b100000000000000000000000000000 I
#87000000000
0!
#87500000000
1!
b100000000000000000000000000000 -
b100000000000000000000000000000 #
b1000000000000000000000000000000 I
#88000000000
0!
#88500000000
1!
b1000000000000000000000000000000 -
b1000000000000000000000000000000 #
b10000000000000000000000000000000 I
#89000000000
0!
#89500000000
1!
b10000000000000000000000000000000 -
b10000000000000000000000000000000 #
b1001 $
b0 #
b1001 H
b10000000000000000000000 I
#90000000000
0!
#90500000000
1!
b10000000000000000000000 .
b10000000000000000000000 #
b100000000000000000000000 I
#91000000000
0!
#91500000000
1!
b100000000000000000000000 .
b100000000000000000000000 #
b1000000000000000000000000 I
#92000000000
0!
#92500000000
1!
b1000000000000000000000000 .
b1000000000000000000000000 #
b10000000000000000000000000 I
#93000000000
0!
#93500000000
1!
b10000000000000000000000000 .
b10000000000000000000000000 #
b100000000000000000000000000 I
#94000000000
0!
#94500000000
1!
b100000000000000000000000000 .
b100000000000000000000000000 #
b1000000000000000000000000000 I
#95000000000
0!
#95500000000
1!
b1000000000000000000000000000 .
b1000000000000000000000000000 #
b10000000000000000000000000000 I
#96000000000
0!
#96500000000
1!
b10000000000000000000000000000 .
b10000000000000000000000000000 #
b100000000000000000000000000000 I
#97000000000
0!
#97500000000
1!
b100000000000000000000000000000 .
b100000000000000000000000000000 #
b1000000000000000000000000000000 I
#98000000000
0!
#98500000000
1!
b1000000000000000000000000000000 .
b1000000000000000000000000000000 #
b10000000000000000000000000000000 I
#99000000000
0!
#99500000000
1!
b10000000000000000000000000000000 .
b10000000000000000000000000000000 #
b1010 $
b0 #
b1010 H
b10000000000000000000000 I
#100000000000
0!
#100500000000
1!
b10000000000000000000000 /
b10000000000000000000000 #
b100000000000000000000000 I
#101000000000
0!
#101500000000
1!
b100000000000000000000000 /
b100000000000000000000000 #
b1000000000000000000000000 I
#102000000000
0!
#102500000000
1!
b1000000000000000000000000 /
b1000000000000000000000000 #
b10000000000000000000000000 I
#103000000000
0!
#103500000000
1!
b10000000000000000000000000 /
b10000000000000000000000000 #
b100000000000000000000000000 I
#104000000000
0!
#104500000000
1!
b100000000000000000000000000 /
b100000000000000000000000000 #
b1000000000000000000000000000 I
#105000000000
0!
#105500000000
1!
b1000000000000000000000000000 /
b1000000000000000000000000000 #
b10000000000000000000000000000 I
#106000000000
0!
#106500000000
1!
b10000000000000000000000000000 /
b10000000000000000000000000000 #
b100000000000000000000000000000 I
#107000000000
0!
#107500000000
1!
b100000000000000000000000000000 /
b100000000000000000000000000000 #
b1000000000000000000000000000000 I
#108000000000
0!
#108500000000
1!
b1000000000000000000000000000000 /
b1000000000000000000000000000000 #
b10000000000000000000000000000000 I
#109000000000
0!
#109500000000
1!
b10000000000000000000000000000000 /
b10000000000000000000000000000000 #
b1011 $
b0 #
b1011 H
b10000000000000000000000 I
#110000000000
0!
#110500000000
1!
b10000000000000000000000 0
b10000000000000000000000 #
b100000000000000000000000 I
#111000000000
0!
#111500000000
1!
b100000000000000000000000 0
b100000000000000000000000 #
b1000000000000000000000000 I
#112000000000
0!
#112500000000
1!
b1000000000000000000000000 0
b1000000000000000000000000 #
b10000000000000000000000000 I
#113000000000
0!
#113500000000
1!
b10000000000000000000000000 0
b10000000000000000000000000 #
b100000000000000000000000000 I
#114000000000
0!
#114500000000
1!
b100000000000000000000000000 0
b100000000000000000000000000 #
b1000000000000000000000000000 I
#115000000000
0!
#115500000000
1!
b1000000000000000000000000000 0
b1000000000000000000000000000 #
b10000000000000000000000000000 I
#116000000000
0!
#116500000000
1!
b10000000000000000000000000000 0
b10000000000000000000000000000 #
b100000000000000000000000000000 I
#117000000000
0!
#117500000000
1!
b100000000000000000000000000000 0
b100000000000000000000000000000 #
b1000000000000000000000000000000 I
#118000000000
0!
#118500000000
1!
b1000000000000000000000000000000 0
b1000000000000000000000000000000 #
b10000000000000000000000000000000 I
#119000000000
0!
#119500000000
1!
b10000000000000000000000000000000 0
b10000000000000000000000000000000 #
b1100 $
b0 #
b1100 H
b10000000000000000000000 I
#120000000000
0!
#120500000000
1!
b10000000000000000000000 1
b10000000000000000000000 #
b100000000000000000000000 I
#121000000000
0!
#121500000000
1!
b100000000000000000000000 1
b100000000000000000000000 #
b1000000000000000000000000 I
#122000000000
0!
#122500000000
1!
b1000000000000000000000000 1
b1000000000000000000000000 #
b10000000000000000000000000 I
#123000000000
0!
#123500000000
1!
b10000000000000000000000000 1
b10000000000000000000000000 #
b100000000000000000000000000 I
#124000000000
0!
#124500000000
1!
b100000000000000000000000000 1
b100000000000000000000000000 #
b1000000000000000000000000000 I
#125000000000
0!
#125500000000
1!
b1000000000000000000000000000 1
b1000000000000000000000000000 #
b10000000000000000000000000000 I
#126000000000
0!
#126500000000
1!
b10000000000000000000000000000 1
b10000000000000000000000000000 #
b100000000000000000000000000000 I
#127000000000
0!
#127500000000
1!
b100000000000000000000000000000 1
b100000000000000000000000000000 #
b1000000000000000000000000000000 I
#128000000000
0!
#128500000000
1!
b1000000000000000000000000000000 1
b1000000000000000000000000000000 #
b10000000000000000000000000000000 I
#129000000000
0!
#129500000000
1!
b10000000000000000000000000000000 1
b10000000000000000000000000000000 #
b1101 $
b0 #
b1101 H
b10000000000000000000000 I
#130000000000
0!
#130500000000
1!
b10000000000000000000000 2
b10000000000000000000000 #
b100000000000000000000000 I
#131000000000
0!
#131500000000
1!
b100000000000000000000000 2
b100000000000000000000000 #
b1000000000000000000000000 I
#132000000000
0!
#132500000000
1!
b1000000000000000000000000 2
b1000000000000000000000000 #
b10000000000000000000000000 I
#133000000000
0!
#133500000000
1!
b10000000000000000000000000 2
b10000000000000000000000000 #
b100000000000000000000000000 I
#134000000000
0!
#134500000000
1!
b100000000000000000000000000 2
b100000000000000000000000000 #
b1000000000000000000000000000 I
#135000000000
0!
#135500000000
1!
b1000000000000000000000000000 2
b1000000000000000000000000000 #
b10000000000000000000000000000 I
#136000000000
0!
#136500000000
1!
b10000000000000000000000000000 2
b10000000000000000000000000000 #
b100000000000000000000000000000 I
#137000000000
0!
#137500000000
1!
b100000000000000000000000000000 2
b100000000000000000000000000000 #
b1000000000000000000000000000000 I
#138000000000
0!
#138500000000
1!
b1000000000000000000000000000000 2
b1000000000000000000000000000000 #
b10000000000000000000000000000000 I
#139000000000
0!
#139500000000
1!
b10000000000000000000000000000000 2
b10000000000000000000000000000000 #
b1110 $
b0 #
b1110 H
b10000000000000000000000 I
#140000000000
0!
#140500000000
1!
b10000000000000000000000 3
b10000000000000000000000 #
b100000000000000000000000 I
#141000000000
0!
#141500000000
1!
b100000000000000000000000 3
b100000000000000000000000 #
b1000000000000000000000000 I
#142000000000
0!
#142500000000
1!
b1000000000000000000000000 3
b1000000000000000000000000 #
b10000000000000000000000000 I
#143000000000
0!
#143500000000
1!
b10000000000000000000000000 3
b10000000000000000000000000 #
b100000000000000000000000000 I
#144000000000
0!
#144500000000
1!
b100000000000000000000000000 3
b100000000000000000000000000 #
b1000000000000000000000000000 I
#145000000000
0!
#145500000000
1!
b1000000000000000000000000000 3
b1000000000000000000000000000 #
b10000000000000000000000000000 I
#146000000000
0!
#146500000000
1!
b10000000000000000000000000000 3
b10000000000000000000000000000 #
b100000000000000000000000000000 I
#147000000000
0!
#147500000000
1!
b100000000000000000000000000000 3
b100000000000000000000000000000 #
b1000000000000000000000000000000 I
#148000000000
0!
#148500000000
1!
b1000000000000000000000000000000 3
b1000000000000000000000000000000 #
b10000000000000000000000000000000 I
#149000000000
0!
#149500000000
1!
b10000000000000000000000000000000 3
b10000000000000000000000000000000 #
b1111 $
b0 #
b1111 H
b10000000000000000000000 I
#150000000000
0!
#150500000000
1!
b10000000000000000000000 4
b10000000000000000000000 #
b100000000000000000000000 I
#151000000000
0!
#151500000000
1!
b100000000000000000000000 4
b100000000000000000000000 #
b1000000000000000000000000 I
#152000000000
0!
#152500000000
1!
b1000000000000000000000000 4
b1000000000000000000000000 #
b10000000000000000000000000 I
#153000000000
0!
#153500000000
1!
b10000000000000000000000000 4
b10000000000000000000000000 #
b100000000000000000000000000 I
#154000000000
0!
#154500000000
1!
b100000000000000000000000000 4
b100000000000000000000000000 #
b1000000000000000000000000000 I
#155000000000
0!
#155500000000
1!
b1000000000000000000000000000 4
b1000000000000000000000000000 #
b10000000000000000000000000000 I
#156000000000
0!
#156500000000
1!
b10000000000000000000000000000 4
b10000000000000000000000000000 #
b100000000000000000000000000000 I
#157000000000
0!
#157500000000
1!
b100000000000000000000000000000 4
b100000000000000000000000000000 #
b1000000000000000000000000000000 I
#158000000000
0!
#158500000000
1!
b1000000000000000000000000000000 4
b1000000000000000000000000000000 #
b10000000000000000000000000000000 I
#159000000000
0!
#159500000000
1!
b10000000000000000000000000000000 4
b10000000000000000000000000000000 #
b10000 $
b0 #
b10000 H
b10000000000000000000000 I
#160000000000
0!
#160500000000
1!
b10000000000000000000000 5
b10000000000000000000000 #
b100000000000000000000000 I
#161000000000
0!
#161500000000
1!
b100000000000000000000000 5
b100000000000000000000000 #
b1000000000000000000000000 I
#162000000000
0!
#162500000000
1!
b1000000000000000000000000 5
b1000000000000000000000000 #
b10000000000000000000000000 I
#163000000000
0!
#163500000000
1!
b10000000000000000000000000 5
b10000000000000000000000000 #
b100000000000000000000000000 I
#164000000000
0!
#164500000000
1!
b100000000000000000000000000 5
b100000000000000000000000000 #
b1000000000000000000000000000 I
#165000000000
0!
#165500000000
1!
b1000000000000000000000000000 5
b1000000000000000000000000000 #
b10000000000000000000000000000 I
#166000000000
0!
#166500000000
1!
b10000000000000000000000000000 5
b10000000000000000000000000000 #
b100000000000000000000000000000 I
#167000000000
0!
#167500000000
1!
b100000000000000000000000000000 5
b100000000000000000000000000000 #
b1000000000000000000000000000000 I
#168000000000
0!
#168500000000
1!
b1000000000000000000000000000000 5
b1000000000000000000000000000000 #
b10000000000000000000000000000000 I
#169000000000
0!
#169500000000
1!
b10000000000000000000000000000000 5
b10000000000000000000000000000000 #
b10001 $
b0 #
b10001 H
b10000000000000000000000 I
#170000000000
0!
#170500000000
1!
b10000000000000000000000 6
b10000000000000000000000 #
b100000000000000000000000 I
#171000000000
0!
#171500000000
1!
b100000000000000000000000 6
b100000000000000000000000 #
b1000000000000000000000000 I
#172000000000
0!
#172500000000
1!
b1000000000000000000000000 6
b1000000000000000000000000 #
b10000000000000000000000000 I
#173000000000
0!
#173500000000
1!
b10000000000000000000000000 6
b10000000000000000000000000 #
b100000000000000000000000000 I
#174000000000
0!
#174500000000
1!
b100000000000000000000000000 6
b100000000000000000000000000 #
b1000000000000000000000000000 I
#175000000000
0!
#175500000000
1!
b1000000000000000000000000000 6
b1000000000000000000000000000 #
b10000000000000000000000000000 I
#176000000000
0!
#176500000000
1!
b10000000000000000000000000000 6
b10000000000000000000000000000 #
b100000000000000000000000000000 I
#177000000000
0!
#177500000000
1!
b100000000000000000000000000000 6
b100000000000000000000000000000 #
b1000000000000000000000000000000 I
#178000000000
0!
#178500000000
1!
b1000000000000000000000000000000 6
b1000000000000000000000000000000 #
b10000000000000000000000000000000 I
#179000000000
0!
#179500000000
1!
b10000000000000000000000000000000 6
b10000000000000000000000000000000 #
b10010 $
b0 #
b10010 H
b10000000000000000000000 I
#180000000000
0!
#180500000000
1!
b10000000000000000000000 7
b10000000000000000000000 #
b100000000000000000000000 I
#181000000000
0!
#181500000000
1!
b100000000000000000000000 7
b100000000000000000000000 #
b1000000000000000000000000 I
#182000000000
0!
#182500000000
1!
b1000000000000000000000000 7
b1000000000000000000000000 #
b10000000000000000000000000 I
#183000000000
0!
#183500000000
1!
b10000000000000000000000000 7
b10000000000000000000000000 #
b100000000000000000000000000 I
#184000000000
0!
#184500000000
1!
b100000000000000000000000000 7
b100000000000000000000000000 #
b1000000000000000000000000000 I
#185000000000
0!
#185500000000
1!
b1000000000000000000000000000 7
b1000000000000000000000000000 #
b10000000000000000000000000000 I
#186000000000
0!
#186500000000
1!
b10000000000000000000000000000 7
b10000000000000000000000000000 #
b100000000000000000000000000000 I
#187000000000
0!
#187500000000
1!
b100000000000000000000000000000 7
b100000000000000000000000000000 #
b1000000000000000000000000000000 I
#188000000000
0!
#188500000000
1!
b1000000000000000000000000000000 7
b1000000000000000000000000000000 #
b10000000000000000000000000000000 I
#189000000000
0!
#189500000000
1!
b10000000000000000000000000000000 7
b10000000000000000000000000000000 #
b10011 $
b0 #
b10011 H
b10000000000000000000000 I
#190000000000
0!
#190500000000
1!
b10000000000000000000000 8
b10000000000000000000000 #
b100000000000000000000000 I
#191000000000
0!
#191500000000
1!
b100000000000000000000000 8
b100000000000000000000000 #
b1000000000000000000000000 I
#192000000000
0!
#192500000000
1!
b1000000000000000000000000 8
b1000000000000000000000000 #
b10000000000000000000000000 I
#193000000000
0!
#193500000000
1!
b10000000000000000000000000 8
b10000000000000000000000000 #
b100000000000000000000000000 I
#194000000000
0!
#194500000000
1!
b100000000000000000000000000 8
b100000000000000000000000000 #
b1000000000000000000000000000 I
#195000000000
0!
#195500000000
1!
b1000000000000000000000000000 8
b1000000000000000000000000000 #
b10000000000000000000000000000 I
#196000000000
0!
#196500000000
1!
b10000000000000000000000000000 8
b10000000000000000000000000000 #
b100000000000000000000000000000 I
#197000000000
0!
#197500000000
1!
b100000000000000000000000000000 8
b100000000000000000000000000000 #
b1000000000000000000000000000000 I
#198000000000
0!
#198500000000
1!
b1000000000000000000000000000000 8
b1000000000000000000000000000000 #
b10000000000000000000000000000000 I
#199000000000
0!
#199500000000
1!
b10000000000000000000000000000000 8
b10000000000000000000000000000000 #
b10100 $
b0 #
b10100 H
b10000000000000000000000 I
#200000000000
0!
#200500000000
1!
b10000000000000000000000 9
b10000000000000000000000 #
b100000000000000000000000 I
#201000000000
0!
#201500000000
1!
b100000000000000000000000 9
b100000000000000000000000 #
b1000000000000000000000000 I
#202000000000
0!
#202500000000
1!
b1000000000000000000000000 9
b1000000000000000000000000 #
b10000000000000000000000000 I
#203000000000
0!
#203500000000
1!
b10000000000000000000000000 9
b10000000000000000000000000 #
b100000000000000000000000000 I
#204000000000
0!
#204500000000
1!
b100000000000000000000000000 9
b100000000000000000000000000 #
b1000000000000000000000000000 I
#205000000000
0!
#205500000000
1!
b1000000000000000000000000000 9
b1000000000000000000000000000 #
b10000000000000000000000000000 I
#206000000000
0!
#206500000000
1!
b10000000000000000000000000000 9
b10000000000000000000000000000 #
b100000000000000000000000000000 I
#207000000000
0!
#207500000000
1!
b100000000000000000000000000000 9
b100000000000000000000000000000 #
b1000000000000000000000000000000 I
#208000000000
0!
#208500000000
1!
b1000000000000000000000000000000 9
b1000000000000000000000000000000 #
b10000000000000000000000000000000 I
#209000000000
0!
#209500000000
1!
b10000000000000000000000000000000 9
b10000000000000000000000000000000 #
b10101 $
b0 #
b10101 H
b10000000000000000000000 I
#210000000000
0!
#210500000000
1!
b10000000000000000000000 :
b10000000000000000000000 #
b100000000000000000000000 I
#211000000000
0!
#211500000000
1!
b100000000000000000000000 :
b100000000000000000000000 #
b1000000000000000000000000 I
#212000000000
0!
#212500000000
1!
b1000000000000000000000000 :
b1000000000000000000000000 #
b10000000000000000000000000 I
#213000000000
0!
#213500000000
1!
b10000000000000000000000000 :
b10000000000000000000000000 #
b100000000000000000000000000 I
#214000000000
0!
#214500000000
1!
b100000000000000000000000000 :
b100000000000000000000000000 #
b1000000000000000000000000000 I
#215000000000
0!
#215500000000
1!
b1000000000000000000000000000 :
b1000000000000000000000000000 #
b10000000000000000000000000000 I
#216000000000
0!
#216500000000
1!
b10000000000000000000000000000 :
b10000000000000000000000000000 #
b100000000000000000000000000000 I
#217000000000
0!
#217500000000
1!
b100000000000000000000000000000 :
b100000000000000000000000000000 #
b1000000000000000000000000000000 I
#218000000000
0!
#218500000000
1!
b1000000000000000000000000000000 :
b1000000000000000000000000000000 #
b10000000000000000000000000000000 I
#219000000000
0!
#219500000000
1!
b10000000000000000000000000000000 :
b10000000000000000000000000000000 #
b10110 $
b0 #
b10110 H
b10000000000000000000000 I
#220000000000
0!
#220500000000
1!
b10000000000000000000000 ;
b10000000000000000000000 #
b100000000000000000000000 I
#221000000000
0!
#221500000000
1!
b100000000000000000000000 ;
b100000000000000000000000 #
b1000000000000000000000000 I
#222000000000
0!
#222500000000
1!
b1000000000000000000000000 ;
b1000000000000000000000000 #
b10000000000000000000000000 I
#223000000000
0!
#223500000000
1!
b10000000000000000000000000 ;
b10000000000000000000000000 #
b100000000000000000000000000 I
#224000000000
0!
#224500000000
1!
b100000000000000000000000000 ;
b100000000000000000000000000 #
b1000000000000000000000000000 I
#225000000000
0!
#225500000000
1!
b1000000000000000000000000000 ;
b1000000000000000000000000000 #
b10000000000000000000000000000 I
#226000000000
0!
#226500000000
1!
b10000000000000000000000000000 ;
b10000000000000000000000000000 #
b100000000000000000000000000000 I
#227000000000
0!
#227500000000
1!
b100000000000000000000000000000 ;
b100000000000000000000000000000 #
b1000000000000000000000000000000 I
#228000000000
0!
#228500000000
1!
b1000000000000000000000000000000 ;
b1000000000000000000000000000000 #
b10000000000000000000000000000000 I
#229000000000
0!
#229500000000
1!
b10000000000000000000000000000000 ;
b10000000000000000000000000000000 #
b10111 $
b0 #
b10111 H
b10000000000000000000000 I
#230000000000
0!
#230500000000
1!
b10000000000000000000000 <
b10000000000000000000000 #
b100000000000000000000000 I
#231000000000
0!
#231500000000
1!
b100000000000000000000000 <
b100000000000000000000000 #
b1000000000000000000000000 I
#232000000000
0!
#232500000000
1!
b1000000000000000000000000 <
b1000000000000000000000000 #
b10000000000000000000000000 I
#233000000000
0!
#233500000000
1!
b10000000000000000000000000 <
b10000000000000000000000000 #
b100000000000000000000000000 I
#234000000000
0!
#234500000000
1!
b100000000000000000000000000 <
b100000000000000000000000000 #
b1000000000000000000000000000 I
#235000000000
0!
#235500000000
1!
b1000000000000000000000000000 <
b1000000000000000000000000000 #
b10000000000000000000000000000 I
#236000000000
0!
#236500000000
1!
b10000000000000000000000000000 <
b10000000000000000000000000000 #
b100000000000000000000000000000 I
