amaranth/Modules/Decoder/decoder.vcd
$comment Generated by Amaranth $end
$date 2025-05-05 13:54:32.758580 $end
$timescale 1 fs $end
$scope module bench $end
$scope module top $end
$var wire 1 ! isALUreg $end
$var wire 32 " instr $end
$var wire 1 # isALUimm $end
$var wire 1 $ isBranch $end
$var wire 1 % isJALR $end
$var wire 1 & isJAL $end
$var wire 1 ' isAUIPC $end
$var wire 1 ( isLUI $end
$var wire 1 ) isLoad $end
$var wire 1 * isStore $end
$var wire 1 + isSystem $end
$var wire 5 , rs1Id $end
$var wire 5 - rs2Id $end
$var wire 5 . rdId $end
$var wire 3 / funct3 $end
$var wire 7 0 funct7 $end
$var wire 32 1 Iimm $end
$var wire 32 2 Simm $end
$var wire 32 3 Bimm $end
$var wire 32 4 Uimm $end
$var wire 32 5 Jimm $end
$upscope $end
$upscope $end
$enddefinitions $end
#0
$dumpvars
0!
b0 "
0#
0$
0%
0&
0'
0(
0)
0*
0+
b0 ,
b0 -
b0 .
b0 /
b0 0
b0 1
b0 2
b0 3
b0 4
b0 5
$end
#500000000
b1100010000000010110011 "
b1 .
b10000100000000010 5
1!
b11 1
b1 2
b10 ,
b100000000000 3
b11 -
b1100010000000000000000 4
#1500000000
b101000010000000010010011 "
b10000000000001010 5
0!
1#
b1010 1
b1010 -
b101000010000000000000000 4
#2500000000
b1100010010000000100011 "
b0 .
b10010100000000010 5
b10 /
0#
1*
b11 1
b0 2
b0 3
b11 -
b1100010010000000000000 4
#3500000000
b1000001000011001100011 "
b1100 .
b1000000000000010 5
b0 /
0*
1$
b10 1
b1100 2
b1 ,
b1100 3
b10 -
b1000001000000000000000 4
#4500000000
b10010001101000101000000110111 "
b0 .
1(
b1000101100100100010 5
b101 /
b1001 0
0$
b100100011 1
b100100000 2
b1000 ,
b100100000 3
b11 -
b10010001101000101000000000000 4
#5500000000
b10000000000000000011101111 "
b1 .
0(
b100000 5
b0 /
b1 0
b100000 1
b100001 2
b0 ,
1&
b100000100000 3
b0 -
b10000000000000000000000000 4
#6500000000
b1110011 "
b0 .
b0 5
b0 0
b0 1
1+
b0 2
0&
b0 3
b0 4
