amaranth/Modules/RAM/ram.vcd
$comment Generated by Amaranth $end
$date 2025-05-05 21:55:00.722830 $end
$timescale 1 fs $end
$scope module bench $end
$scope module top $end
$var wire 1 ! clk $end
$var wire 1 " rst $end
$var wire 1 # write_en $end
$var wire 1 $ read_en $end
$var wire 8 % ram_w_addr $end
$var wire 32 & addr_reg $end
$var wire 1 ' ram_w_en $end
$var wire 32 ( ram_w_data $end
$var wire 32 ) data_in_reg $end
$var wire 8 * ram_r_addr $end
$var wire 1 + ram_r_en $end
$var wire 32 , data_out_reg $end
$var wire 32 - ram_r_data $end
$var wire 32 . \ram[0] $end
$var wire 32 / \ram[1] $end
$var wire 32 0 \ram[2] $end
$var wire 32 1 \ram[3] $end
$var wire 32 2 \ram[4] $end
$var wire 32 3 \ram[5] $end
$var wire 32 4 \ram[6] $end
$var wire 32 5 \ram[7] $end
$var wire 32 6 \ram[8] $end
$var wire 32 7 \ram[9] $end
$var wire 32 8 \ram[10] $end
$var wire 32 9 \ram[11] $end
$var wire 32 : \ram[12] $end
$var wire 32 ; \ram[13] $end
$var wire 32 < \ram[14] $end
$var wire 32 = \ram[15] $end
$var wire 32 > \ram[16] $end
$var wire 32 ? \ram[17] $end
$var wire 32 @ \ram[18] $end
$var wire 32 A \ram[19] $end
$var wire 32 B \ram[20] $end
$var wire 32 C \ram[21] $end
$var wire 32 D \ram[22] $end
$var wire 32 E \ram[23] $end
$var wire 32 F \ram[24] $end
$var wire 32 G \ram[25] $end
$var wire 32 H \ram[26] $end
$var wire 32 I \ram[27] $end
$var wire 32 J \ram[28] $end
$var wire 32 K \ram[29] $end
$var wire 32 L \ram[30] $end
$var wire 32 M \ram[31] $end
$var wire 32 N \ram[32] $end
$var wire 32 O \ram[33] $end
$var wire 32 P \ram[34] $end
$var wire 32 Q \ram[35] $end
$var wire 32 R \ram[36] $end
$var wire 32 S \ram[37] $end
$var wire 32 T \ram[38] $end
$var wire 32 U \ram[39] $end
$var wire 32 V \ram[40] $end
$var wire 32 W \ram[41] $end
$var wire 32 X \ram[42] $end
$var wire 32 Y \ram[43] $end
$var wire 32 Z \ram[44] $end
$var wire 32 [ \ram[45] $end
$var wire 32 \ \ram[46] $end
$var wire 32 ] \ram[47] $end
$var wire 32 ^ \ram[48] $end
$var wire 32 _ \ram[49] $end
$var wire 32 ` \ram[50] $end
$var wire 32 a \ram[51] $end
$var wire 32 b \ram[52] $end
$var wire 32 c \ram[53] $end
$var wire 32 d \ram[54] $end
$var wire 32 e \ram[55] $end
$var wire 32 f \ram[56] $end
$var wire 32 g \ram[57] $end
$var wire 32 h \ram[58] $end
$var wire 32 i \ram[59] $end
$var wire 32 j \ram[60] $end
$var wire 32 k \ram[61] $end
$var wire 32 l \ram[62] $end
$var wire 32 m \ram[63] $end
$var wire 32 n \ram[64] $end
$var wire 32 o \ram[65] $end
$var wire 32 p \ram[66] $end
$var wire 32 q \ram[67] $end
$var wire 32 r \ram[68] $end
$var wire 32 s \ram[69] $end
$var wire 32 t \ram[70] $end
$var wire 32 u \ram[71] $end
$var wire 32 v \ram[72] $end
$var wire 32 w \ram[73] $end
$var wire 32 x \ram[74] $end
$var wire 32 y \ram[75] $end
$var wire 32 z \ram[76] $end
$var wire 32 { \ram[77] $end
$var wire 32 | \ram[78] $end
$var wire 32 } \ram[79] $end
$var wire 32 ~ \ram[80] $end
$var wire 32 !! \ram[81] $end
$var wire 32 "! \ram[82] $end
$var wire 32 #! \ram[83] $end
$var wire 32 $! \ram[84] $end
$var wire 32 %! \ram[85] $end
$var wire 32 &! \ram[86] $end
$var wire 32 '! \ram[87] $end
$var wire 32 (! \ram[88] $end
$var wire 32 )! \ram[89] $end
$var wire 32 *! \ram[90] $end
$var wire 32 +! \ram[91] $end
$var wire 32 ,! \ram[92] $end
$var wire 32 -! \ram[93] $end
$var wire 32 .! \ram[94] $end
$var wire 32 /! \ram[95] $end
$var wire 32 0! \ram[96] $end
$var wire 32 1! \ram[97] $end
$var wire 32 2! \ram[98] $end
$var wire 32 3! \ram[99] $end
$var wire 32 4! \ram[100] $end
$var wire 32 5! \ram[101] $end
$var wire 32 6! \ram[102] $end
$var wire 32 7! \ram[103] $end
$var wire 32 8! \ram[104] $end
$var wire 32 9! \ram[105] $end
$var wire 32 :! \ram[106] $end
$var wire 32 ;! \ram[107] $end
$var wire 32 <! \ram[108] $end
$var wire 32 =! \ram[109] $end
$var wire 32 >! \ram[110] $end
$var wire 32 ?! \ram[111] $end
$var wire 32 @! \ram[112] $end
$var wire 32 A! \ram[113] $end
$var wire 32 B! \ram[114] $end
$var wire 32 C! \ram[115] $end
$var wire 32 D! \ram[116] $end
$var wire 32 E! \ram[117] $end
$var wire 32 F! \ram[118] $end
$var wire 32 G! \ram[119] $end
$var wire 32 H! \ram[120] $end
$var wire 32 I! \ram[121] $end
$var wire 32 J! \ram[122] $end
$var wire 32 K! \ram[123] $end
$var wire 32 L! \ram[124] $end
$var wire 32 M! \ram[125] $end
$var wire 32 N! \ram[126] $end
$var wire 32 O! \ram[127] $end
$var wire 32 P! \ram[128] $end
$var wire 32 Q! \ram[129] $end
$var wire 32 R! \ram[130] $end
$var wire 32 S! \ram[131] $end
$var wire 32 T! \ram[132] $end
$var wire 32 U! \ram[133] $end
$var wire 32 V! \ram[134] $end
$var wire 32 W! \ram[135] $end
$var wire 32 X! \ram[136] $end
$var wire 32 Y! \ram[137] $end
$var wire 32 Z! \ram[138] $end
$var wire 32 [! \ram[139] $end
$var wire 32 \! \ram[140] $end
$var wire 32 ]! \ram[141] $end
$var wire 32 ^! \ram[142] $end
$var wire 32 _! \ram[143] $end
$var wire 32 `! \ram[144] $end
$var wire 32 a! \ram[145] $end
$var wire 32 b! \ram[146] $end
$var wire 32 c! \ram[147] $end
$var wire 32 d! \ram[148] $end
$var wire 32 e! \ram[149] $end
$var wire 32 f! \ram[150] $end
$var wire 32 g! \ram[151] $end
$var wire 32 h! \ram[152] $end
$var wire 32 i! \ram[153] $end
$var wire 32 j! \ram[154] $end
$var wire 32 k! \ram[155] $end
$var wire 32 l! \ram[156] $end
$var wire 32 m! \ram[157] $end
$var wire 32 n! \ram[158] $end
$var wire 32 o! \ram[159] $end
$var wire 32 p! \ram[160] $end
$var wire 32 q! \ram[161] $end
$var wire 32 r! \ram[162] $end
$var wire 32 s! \ram[163] $end
$var wire 32 t! \ram[164] $end
$var wire 32 u! \ram[165] $end
$var wire 32 v! \ram[166] $end
$var wire 32 w! \ram[167] $end
$var wire 32 x! \ram[168] $end
$var wire 32 y! \ram[169] $end
$var wire 32 z! \ram[170] $end
$var wire 32 {! \ram[171] $end
$var wire 32 |! \ram[172] $end
$var wire 32 }! \ram[173] $end
$var wire 32 ~! \ram[174] $end
$var wire 32 !" \ram[175] $end
$var wire 32 "" \ram[176] $end
$var wire 32 #" \ram[177] $end
$var wire 32 $" \ram[178] $end
$var wire 32 %" \ram[179] $end
$var wire 32 &" \ram[180] $end
$var wire 32 '" \ram[181] $end
$var wire 32 (" \ram[182] $end
$var wire 32 )" \ram[183] $end
$var wire 32 *" \ram[184] $end
$var wire 32 +" \ram[185] $end
$var wire 32 ," \ram[186] $end
$var wire 32 -" \ram[187] $end
$var wire 32 ." \ram[188] $end
$var wire 32 /" \ram[189] $end
$var wire 32 0" \ram[190] $end
$var wire 32 1" \ram[191] $end
$var wire 32 2" \ram[192] $end
$var wire 32 3" \ram[193] $end
$var wire 32 4" \ram[194] $end
$var wire 32 5" \ram[195] $end
$var wire 32 6" \ram[196] $end
$var wire 32 7" \ram[197] $end
$var wire 32 8" \ram[198] $end
$var wire 32 9" \ram[199] $end
$var wire 32 :" \ram[200] $end
$var wire 32 ;" \ram[201] $end
$var wire 32 <" \ram[202] $end
$var wire 32 =" \ram[203] $end
$var wire 32 >" \ram[204] $end
$var wire 32 ?" \ram[205] $end
$var wire 32 @" \ram[206] $end
$var wire 32 A" \ram[207] $end
$var wire 32 B" \ram[208] $end
$var wire 32 C" \ram[209] $end
$var wire 32 D" \ram[210] $end
$var wire 32 E" \ram[211] $end
$var wire 32 F" \ram[212] $end
$var wire 32 G" \ram[213] $end
$var wire 32 H" \ram[214] $end
$var wire 32 I" \ram[215] $end
$var wire 32 J" \ram[216] $end
$var wire 32 K" \ram[217] $end
$var wire 32 L" \ram[218] $end
$var wire 32 M" \ram[219] $end
$var wire 32 N" \ram[220] $end
$var wire 32 O" \ram[221] $end
$var wire 32 P" \ram[222] $end
$var wire 32 Q" \ram[223] $end
$var wire 32 R" \ram[224] $end
$var wire 32 S" \ram[225] $end
$var wire 32 T" \ram[226] $end
$var wire 32 U" \ram[227] $end
$var wire 32 V" \ram[228] $end
$var wire 32 W" \ram[229] $end
$var wire 32 X" \ram[230] $end
$var wire 32 Y" \ram[231] $end
$var wire 32 Z" \ram[232] $end
$var wire 32 [" \ram[233] $end
$var wire 32 \" \ram[234] $end
$var wire 32 ]" \ram[235] $end
$var wire 32 ^" \ram[236] $end
$var wire 32 _" \ram[237] $end
$var wire 32 `" \ram[238] $end
$var wire 32 a" \ram[239] $end
$var wire 32 b" \ram[240] $end
$var wire 32 c" \ram[241] $end
$var wire 32 d" \ram[242] $end
$var wire 32 e" \ram[243] $end
$var wire 32 f" \ram[244] $end
$var wire 32 g" \ram[245] $end
$var wire 32 h" \ram[246] $end
$var wire 32 i" \ram[247] $end
$var wire 32 j" \ram[248] $end
$var wire 32 k" \ram[249] $end
$var wire 32 l" \ram[250] $end
$var wire 32 m" \ram[251] $end
$var wire 32 n" \ram[252] $end
$var wire 32 o" \ram[253] $end
$var wire 32 p" \ram[254] $end
$var wire 32 q" \ram[255] $end
$scope module ram $end
$var wire 1 ! clk $end
$var wire 1 " rst $end
$var wire 8 % ram_w_addr $end
$var wire 1 ' ram_w_en $end
$var wire 32 ( ram_w_data $end
$var wire 8 * ram_r_addr $end
$var wire 1 + ram_r_en $end
$var wire 32 - ram_r_data $end
$upscope $end
$upscope $end
$upscope $end
$enddefinitions $end
#0
$dumpvars
0!
0"
1#
0$
b0 %
b0 &
1'
b0 (
b0 )
b0 *
1+
b0 ,
b0 -
b0 .
b0 /
b0 0
b0 1
b0 2
b0 3
b0 4
b0 5
b0 6
b0 7
b0 8
b0 9
b0 :
b0 ;
b0 <
b0 =
b0 >
b0 ?
b0 @
b0 A
b0 B
b0 C
b0 D
b0 E
b0 F
b0 G
b0 H
b0 I
b0 J
b0 K
b0 L
b0 M
b0 N
b0 O
b0 P
b0 Q
b0 R
b0 S
b0 T
b0 U
b0 V
b0 W
b0 X
b0 Y
b0 Z
b0 [
b0 \
b0 ]
b0 ^
b0 _
b0 `
b0 a
b0 b
b0 c
b0 d
b0 e
b0 f
b0 g
b0 h
b0 i
b0 j
b0 k
b0 l
b0 m
b0 n
b0 o
b0 p
b0 q
b0 r
b0 s
b0 t
b0 u
b0 v
b0 w
b0 x
b0 y
b0 z
b0 {
b0 |
b0 }
b0 ~
b0 !!
b0 "!
b0 #!
b0 $!
b0 %!
b0 &!
b0 '!
b0 (!
b0 )!
b0 *!
b0 +!
b0 ,!
b0 -!
b0 .!
b0 /!
b0 0!
b0 1!
b0 2!
b0 3!
b0 4!
b0 5!
b0 6!
b0 7!
b0 8!
b0 9!
b0 :!
b0 ;!
b0 <!
b0 =!
b0 >!
b0 ?!
b0 @!
b0 A!
b0 B!
b0 C!
b0 D!
b0 E!
b0 F!
b0 G!
b0 H!
b0 I!
b0 J!
b0 K!
b0 L!
b0 M!
b0 N!
b0 O!
b0 P!
b0 Q!
b0 R!
b0 S!
b0 T!
b0 U!
b0 V!
b0 W!
b0 X!
b0 Y!
b0 Z!
b0 [!
b0 \!
b0 ]!
b0 ^!
b0 _!
b0 `!
b0 a!
b0 b!
b0 c!
b0 d!
b0 e!
b0 f!
b0 g!
b0 h!
b0 i!
b0 j!
b0 k!
b0 l!
b0 m!
b0 n!
b0 o!
b0 p!
b0 q!
b0 r!
b0 s!
b0 t!
b0 u!
b0 v!
b0 w!
b0 x!
b0 y!
b0 z!
b0 {!
b0 |!
b0 }!
b0 ~!
b0 !"
b0 ""
b0 #"
b0 $"
b0 %"
b0 &"
b0 '"
b0 ("
b0 )"
b0 *"
b0 +"
b0 ,"
b0 -"
b0 ."
b0 /"
b0 0"
b0 1"
b0 2"
b0 3"
b0 4"
b0 5"
b0 6"
b0 7"
b0 8"
b0 9"
b0 :"
b0 ;"
b0 <"
b0 ="
b0 >"
b0 ?"
b0 @"
b0 A"
b0 B"
b0 C"
b0 D"
b0 E"
b0 F"
b0 G"
b0 H"
b0 I"
b0 J"
b0 K"
b0 L"
b0 M"
b0 N"
b0 O"
b0 P"
b0 Q"
b0 R"
b0 S"
b0 T"
b0 U"
b0 V"
b0 W"
b0 X"
b0 Y"
b0 Z"
b0 ["
b0 \"
b0 ]"
b0 ^"
b0 _"
b0 `"
b0 a"
b0 b"
b0 c"
b0 d"
b0 e"
b0 f"
b0 g"
b0 h"
b0 i"
b0 j"
b0 k"
b0 l"
b0 m"
b0 n"
b0 o"
b0 p"
b0 q"
$end
#500000000
1!
#1000000000
0!
#1500000000
1!
b10 &
b10 %
b10001000100010001000100010001 )
b10001000100010001000100010001 (
#2000000000
0!
#2500000000
1!
b10001000100010001000100010001 0
#3000000000
0!
#3500000000
1!
b100 &
b100 %
b100010001000100010001000100010 )
b100010001000100010001000100010 (
#4000000000
0!
#4500000000
1!
b100010001000100010001000100010 2
#5000000000
0!
#5500000000
1!
b110 &
b110 %
b110011001100110011001100110011 )
b110011001100110011001100110011 (
#6000000000
0!
#6500000000
1!
b110011001100110011001100110011 4
#7000000000
0!
#7500000000
1!
b1000 &
b1000 %
b1000100010001000100010001000100 )
b1000100010001000100010001000100 (
#8000000000
0!
#8500000000
1!
b1000100010001000100010001000100 6
#9000000000
0!
#9500000000
1!
b1010 &
b1010 %
b1010101010101010101010101010101 )
b1010101010101010101010101010101 (
#10000000000
0!
#10500000000
1!
b1010101010101010101010101010101 8
#11000000000
0!
#11500000000
1!
b1100 &
b1100 %
b1100110011001100110011001100110 )
b1100110011001100110011001100110 (
#12000000000
0!
#12500000000
1!
b1100110011001100110011001100110 :
#13000000000
0!
#13500000000
1!
b1110 &
b1110 %
b1110111011101110111011101110111 )
b1110111011101110111011101110111 (
#14000000000
0!
#14500000000
1!
b1110111011101110111011101110111 <
#15000000000
0!
#15500000000
1!
b10000 &
b10000 %
b10001000100010001000100010001000 )
b10001000100010001000100010001000 (
#16000000000
0!
#16500000000
1!
b10001000100010001000100010001000 >
#17000000000
0!
#17500000000
1!
b10010 &
b10010 %
b10011001100110011001100110011001 )
b10011001100110011001100110011001 (
#18000000000
0!
#18500000000
1!
b10011001100110011001100110011001 @
#19000000000
0!
#19500000000
1!
b10100 &
b10100 %
b10101010101010101010101010101010 )
b10101010101010101010101010101010 (
#20000000000
0!
#20500000000
1!
b10101010101010101010101010101010 B
#21000000000
0!
#21500000000
1!
b10110 &
b10110 %
b10111011101110111011101110111011 )
b10111011101110111011101110111011 (
#22000000000
0!
#22500000000
1!
b10111011101110111011101110111011 D
#23000000000
0!
#23500000000
1!
b11000 &
b11000 %
b11001100110011001100110011001100 )
b11001100110011001100110011001100 (
#24000000000
0!
#24500000000
1!
b11001100110011001100110011001100 F
#25000000000
0!
#25500000000
1!
b11010 &
b11010 %
b11011101110111011101110111011101 )
b11011101110111011101110111011101 (
#26000000000
0!
#26500000000
1!
b11011101110111011101110111011101 H
#27000000000
0!
#27500000000
1!
b11100 &
b11100 %
b11101110111011101110111011101110 )
b11101110111011101110111011101110 (
#28000000000
0!
#28500000000
1!
b11101110111011101110111011101110 J
#29000000000
0!
#29500000000
1!
b11110 &
b11110 %
b11111111111111111111111111111111 )
b11111111111111111111111111111111 (
#30000000000
0!
#30500000000
1!
b11111111111111111111111111111111 L
#31000000000
0!
#31500000000
1!
b0 &
b0 %
0#
0'
b0 (
1$
#32000000000
0!
#32500000000
1!
#33000000000
0!
#33500000000
1!
b10 &
b10 *
#34000000000
0!
#34500000000
1!
b10001000100010001000100010001 -
b10001000100010001000100010001 ,
#35000000000
0!
#35500000000
1!
b100 &
b100 *
#36000000000
0!
#36500000000
1!
b100010001000100010001000100010 -
b100010001000100010001000100010 ,
#37000000000
0!
#37500000000
1!
b110 &
b110 *
#38000000000
0!
#38500000000
1!
b110011001100110011001100110011 -
b110011001100110011001100110011 ,
#39000000000
0!
#39500000000
1!
b1000 &
b1000 *
#40000000000
0!
#40500000000
1!
b1000100010001000100010001000100 -
b1000100010001000100010001000100 ,
#41000000000
0!
#41500000000
1!
b1010 &
b1010 *
#42000000000
0!
#42500000000
1!
b1010101010101010101010101010101 -
b1010101010101010101010101010101 ,
#43000000000
0!
#43500000000
1!
b1100 &
b1100 *
#44000000000
0!
#44500000000
1!
b1100110011001100110011001100110 -
b1100110011001100110011001100110 ,
#45000000000
0!
#45500000000
1!
b1110 &
b1110 *
#46000000000
0!
#46500000000
1!
b1110111011101110111011101110111 -
b1110111011101110111011101110111 ,
#47000000000
0!
#47500000000
1!
b10000 &
b10000 *
#48000000000
0!
#48500000000
1!
b10001000100010001000100010001000 -
b10001000100010001000100010001000 ,
#49000000000
0!
#49500000000
1!
b10010 &
b10010 *
#50000000000
0!
#50500000000
1!
b10011001100110011001100110011001 -
b10011001100110011001100110011001 ,
#51000000000
0!
#51500000000
1!
b10100 &
b10100 *
#52000000000
0!
#52500000000
1!
b10101010101010101010101010101010 -
b10101010101010101010101010101010 ,
#53000000000
0!
#53500000000
1!
b10110 &
b10110 *
#54000000000
0!
#54500000000
1!
b10111011101110111011101110111011 -
b10111011101110111011101110111011 ,
#55000000000
0!
#55500000000
1!
b11000 &
b11000 *
#56000000000
0!
#56500000000
1!
b11001100110011001100110011001100 -
b11001100110011001100110011001100 ,
#57000000000
0!
#57500000000
1!
b11010 &
b11010 *
#58000000000
0!
#58500000000
1!
b11011101110111011101110111011101 -
b11011101110111011101110111011101 ,
#59000000000
0!
#59500000000
1!
b11100 &
b11100 *
#60000000000
0!
#60500000000
1!
b11101110111011101110111011101110 -
b11101110111011101110111011101110 ,
#61000000000
0!
#61500000000
1!
b11110 &
b11110 *
#62000000000
0!
#62500000000
1!
b11111111111111111111111111111111 -
b11111111111111111111111111111111 ,
